{
  "type": "object",
  "properties": {
    "value": {
      "type": "number",
      "minimum": 0
    },
    "x": {
      "type": "number",
      "minimum": -1,
      "maximum": 1
    },
    "y": {
      "type": "number",
      "minimum": -1,
      "maximum": 1
    },
    "z": {
      "type": "number",
      "minimum": -1,
      "maximum": 1
    }
  },
  "required": [
    "value",
    "x",
    "y"
  ]
}